{
    "username":"frontend@webstar.hu",
    "password":"s9@:8BpuC]*Q,e,A"
}

{
    "token": "eyJhbGci..........4kZo",
    "refreshToken": "kaf5FAc2..........9Fjx",
    "user": {
        "email": "frontend@webstar.hu",
        "firstName": "Pilóta",
        "lastName": "Felvételiző"
    }
}

{
    "error": "Nincs ApplicantId"
}

{
    "error": "Method Not Allowed"
}

{
    "error": "Sikertelen azonosítás"
}